hw02_ledford
…
monthly_counts <- wmata_ridership %>%
  group_by(month) %>%
  summarise(total_rides_per_month = sum(Total))

props_daily <- wmata_ridership %>%
  left_join(monthly_counts, by = "month") %>%
  mutate(prop = Total / total_rides_per_month)

print(props_daily, n = 50)

# A tibble: 5,469 × 6
   Date        Total month day   total_rides_per_month     prop
   <date>      <dbl> <chr> <chr>                 <dbl>    <dbl>
 1 2004-01-01 129000 01    01                232818000 0.000554
 2 2004-01-02 419000 01    02                232818000 0.00180 
 3 2004-01-03 222000 01    03                232818000 0.000954
 4 2004-01-04 140000 01    04                232818000 0.000601
 5 2004-01-05 564000 01    05                232818000 0.00242 
 6 2004-01-06 609000 01    06                232818000 0.00262 
 7 2004-01-07 609000 01    07                232818000 0.00262 
 8 2004-01-08 611000 01    08                232818000 0.00262 
 9 2004-01-09 624000 01    09                232818000 0.00268 
10 2004-01-10 201000 01    10                232818000 0.000863
11 2004-01-11 135000 01    11                232818000 0.000580
12 2004-01-12 618000 01    12                232818000 0.00265 
13 2004-01-13 660000 01    13                232818000 0.00283 
14 2004-01-14 661000 01    14                232818000 0.00284 
15 2004-01-15 628000 01    15                232818000 0.00270 
16 2004-01-16 594000 01    16                232818000 0.00255 
17 2004-01-17 236000 01    17                232818000 0.00101 
18 2004-01-18 148000 01    18                232818000 0.000636
19 2004-01-19 220000 01    19                232818000 0.000945
20 2004-01-20 617000 01    20                232818000 0.00265 
21 2004-01-21 647000 01    21                232818000 0.00278 
22 2004-01-22 687000 01    22                232818000 0.00295 
23 2004-01-23 640000 01    23                232818000 0.00275 
24 2004-01-24 221000 01    24                232818000 0.000949
25 2004-01-25 136000 01    25                232818000 0.000584
26 2004-01-26 436000 01    26                232818000 0.00187 
27 2004-01-27 517000 01    27                232818000 0.00222 
28 2004-01-28 614000 01    28                232818000 0.00264 
29 2004-01-29 655000 01    29                232818000 0.00281 
30 2004-01-30 633000 01    30                232818000 0.00272 
31 2004-01-31 215000 01    31                232818000 0.000923
32 2004-02-01 134000 02    01                220992000 0.000606
33 2004-02-02 615000 02    02                220992000 0.00278 
34 2004-02-03 598000 02    03                220992000 0.00271 
35 2004-02-04 659000 02    04                220992000 0.00298 
36 2004-02-05 652000 02    05                220992000 0.00295 
37 2004-02-06 603000 02    06                220992000 0.00273 
38 2004-02-07 238000 02    07                220992000 0.00108 
39 2004-02-08 141000 02    08                220992000 0.000638
40 2004-02-09 621000 02    09                220992000 0.00281 
41 2004-02-10 650000 02    10                220992000 0.00294 
42 2004-02-11 660000 02    11                220992000 0.00299 
43 2004-02-12 651000 02    12                220992000 0.00295 
44 2004-02-13 644000 02    13                220992000 0.00291 
45 2004-02-14 273000 02    14                220992000 0.00124 
46 2004-02-15 168000 02    15                220992000 0.000760
47 2004-02-16 241000 02    16                220992000 0.00109 
48 2004-02-17 634000 02    17                220992000 0.00287 
49 2004-02-18 648000 02    18                220992000 0.00293 
50 2004-02-19 665000 02    19                220992000 0.00301 
# ℹ 5,419 more rows
…
